module gitlab.com/tkr-team/postich

go 1.16

require (
	github.com/alecthomas/template v0.0.0-20190718012654-fb15b899a751 // indirect
	github.com/cpuguy83/go-md2man/v2 v2.0.0 // indirect
	github.com/gin-gonic/gin v1.7.1 // indirect
	github.com/go-openapi/spec v0.20.3 // indirect
	github.com/go-openapi/swag v0.19.15 // indirect
	github.com/go-playground/validator/v10 v10.5.0 // indirect
	github.com/golang-migrate/migrate v3.5.4+incompatible // indirect
	github.com/golang/protobuf v1.5.2 // indirect
	github.com/google/uuid v1.2.0
	github.com/jmoiron/sqlx v1.3.3
	github.com/joho/godotenv v1.3.0
	github.com/json-iterator/go v1.1.10 // indirect
	github.com/leodido/go-urn v1.2.1 // indirect
	github.com/lib/pq v1.10.1
	github.com/mailru/easyjson v0.7.7 // indirect
	github.com/russross/blackfriday/v2 v2.1.0 // indirect
	github.com/spf13/viper v1.7.1
	github.com/stretchr/testify v1.7.0 // indirect
	github.com/swaggo/files v0.0.0-20190704085106-630677cd5c14 // indirect
	github.com/swaggo/gin-swagger v1.3.0 // indirect
	github.com/swaggo/swag v1.7.0 // indirect
	github.com/ugorji/go v1.2.5 // indirect
	github.com/urfave/cli v1.22.5 // indirect
	golang.org/x/crypto v0.0.0-20210421170649-83a5a9bb288b // indirect
	golang.org/x/net v0.0.0-20210423184538-5f58ad60dda6 // indirect
	golang.org/x/sys v0.0.0-20210423185535-09eb48e85fd7 // indirect
	golang.org/x/tools v0.1.0 // indirect
)
